Data Analysis of an Insurance Company Result
…
Data Analysis of an Insurance Company Result
library(tidyverse)
 
claims_df <- readRDS(url('https://gmubusinessanalytics.netlify.app/data/claims_df.rds'))
Raw Data
claims_df
# A tibble: 6,249 × 20

   custo…¹ custo…² highe…³ emplo…⁴ gender income resid…⁵ marit…⁶ sales…⁷ cover…⁸
   <chr>   <fct>   <fct>   <fct>   <fct>   <dbl> <fct>   <fct>   <fct>   <fct>  
 1 AA11235 Nevada  Bachel… Medica… Female  11167 Suburb… Married Branch  Basic  
 2 AA16582 Washin… Bachel… Medica… Male    14072 Suburb… Divorc… Agent   Basic  
 3 AA34092 Califo… Associ… Employ… Male    33635 Suburb… Married Web     Extend…
 4 AA56476 Arizona High S… Employ… Female  74454 Suburb… Single  Call C… Basic  
 5 AA69265 Nevada  Bachel… Employ… Female  60817 Suburb… Single  Web     Premium
 6 AA71604 Arizona Master  Employ… Female  87560 Suburb… Married Web     Extend…
 7 AA93585 Califo… Associ… Employ… Male    97024 Urban   Married Branch  Premium
 8 AB21519 Califo… Associ… Employ… Female  93272 Urban   Married Branch  Extend…
 9 AB23825 Califo… Associ… Employ… Male    21509 Suburb… Single  Agent   Extend…
10 AB26022 Oregon  High S… Retired Male    26487 Suburb… Single  Call C… Basic  
# … with 6,239 more rows, 10 more variables: policy <fct>, vehicle_class <fct>,
#   vehicle_size <fct>, monthly_premium <dbl>, months_policy_active <dbl>,
#   months_since_last_claim <dbl>, current_claim_amount <dbl>,
#   total_claims <dbl>, total_claims_amount <dbl>,
#   customer_lifetime_value <dbl>, and abbreviated variable names ¹​customer_id,
#   ²​customer_state, ³​highest_education, ⁴​employment_status, ⁵​residence_type,
#   ⁶​marital_status, ⁷​sales_channel, ⁸​coverage
…
